<?xml version="1.0" encoding="UTF-8"?>
<session version="1.0">
<refactoring accessors="true" comment="Delete element from project &apos;projectERP&apos;&#x0A;- Original project: &apos;projectERP&apos;&#x0A;- Original element: &apos;entities.Proiecte.java&apos;" description="Delete element" element1="/src&lt;entities{Proiecte.java" elements="1" flags="589830" id="org.eclipse.jdt.ui.delete" resources="0" stamp="1384977111434" subPackages="false" version="1.0"/>
</session>